[{
    "id": 1,
    "name": "Home",
    "description": "bla bla bla",
    "routerLink": "/link1"
},
{
    "id": 2,
    "name": "link 1",
    "routerLink": "/link1"
},
{
    "id": 3,
    "name": "Cubic Bezier Explorer",
    "routerLink": "/link2"
},
{
    "id": 4,
    "name": "Pixi.js demo",
    "routerLink": "/link3"
},
{
    "id": 5,
    "name": "EditExample component",
    "routerLink": "/link5"
}]